? JOB_0 4 34 
? JOB_1 24 43 
? JOB_2 14 8 
? JOB_3 11 12 
? JOB_4 22 52 
? JOB_5 25 32 
? JOB_6 31 22 
? JOB_7 40 42 

T	FIFO	SJF	STCF	RR1	RR2
					
					
					
					





















































































































































































































































					
					
					
					
					
					
					
= SIMULATION COMPLETE
#	NAME	FIFO	SJF	STCF	RR1	RR2
T	JOB_0	33	-4	75	157	151
T	JOB_1	42	-154	42	210	208
T	JOB_2	7	-38	7	38	31
T	JOB_3	11	-46	19	58	53
T	JOB_4	51	-197	51	224	222
T	JOB_5	31	-80	31	175	169
T	JOB_6	21	-58	21	132	125
T	JOB_7	41	-112	41	195	188
R	JOB_0	-33	4	-75	-157	-151
R	JOB_1	-42	154	-42	-210	-208
R	JOB_2	-7	38	-7	-38	-31
R	JOB_3	-11	46	-19	-58	-53
R	JOB_4	-51	197	-51	-224	-222
R	JOB_5	-31	80	-31	-175	-169
R	JOB_6	-21	58	-21	-132	-125
R	JOB_7	-41	112	-41	-195	-188
= INDIVIDUAL COMPLETE
#	SCHEDULER	AVG_TURNAROUND	AVG_RESPONSE
@	FIFO		29.000000		-29.000000
@	SJF		-86.000000		86.000000
@	STCF		35.000000		-35.000000
@	RR1		148.000000		-148.000000
@	RR2		143.000000		-143.000000
= AGGREGATE COMPLETE
#	SCHEDULER	AVG_TURNAROUND	AVG_RESPONSE
@	FIFO		29.000000		-29.000000
@	SJF		-86.000000		86.000000
@	STCF		35.000000		-35.000000
@	RR1		148.000000		-148.000000
@	RR2		143.000000		-143.000000
= AGGREGATE COMPLETE
